…
#Defining an ordered list of months
month_labs <- c("Jan","Feb","Mar","Apr","May","Jun","Jul","Aug","Sep","Oct","Nov","Dec")

#Converting month to factor
bikes_with_avg$month <- factor(bikes_with_avg$month, label = month_labs, ordered = TRUE)

#Create variables "up" and "down" denoting the shifts from the average
bikes_with_avg_new<-bikes_with_avg %>%
  mutate(up = ifelse(excess_rentals > 0, as.numeric(excess_rentals), 0), down = ifelse(excess_rentals < 0, as.numeric(excess_rentals), 0)) %>% 
  arrange(year,month)

bikes_with_avg_new

## # A tibble: 67 x 7
## # Groups:   month [12]
##    month  year mean_monthly_bikes mean_bikes_overall excess_rentals    up   down
##    <ord> <dbl>              <dbl>              <dbl>          <dbl> <dbl>  <dbl>
##  1 Jan    2016             18914.             20617.         -1703.    0  -1703.
##  2 Feb    2016             20608.             22049.         -1441.    0  -1441.
##  3 Mar    2016             21435              23237.         -1802.    0  -1802.
##  4 Apr    2016             25444.             28299.         -2856.    0  -2856.
##  5 May    2016             32699.             33270.          -571.    0   -571.
##  6 Jun    2016             32108.             35413.         -3306.    0  -3306.
##  7 Jul    2016             38336.             38109.           227.  227.     0 
##  8 Aug    2016             37368.             34393.          2975. 2975.     0 
##  9 Sep    2016             35101.             33013.          2088. 2088.     0 
## 10 Oct    2016             30488.             30235.           254.  254.     0 
## # ... with 57 more rows
…
  #Filtering for years 2016-19
  filter(year %in% c(2016,2017,2018,2019)) %>% 
  
  #Grouping by week
  group_by(week) %>%
  
  #Calculating average bikes hired weekly
  summarise(
    mean_weekly_overall = mean(bikes_hired)
  )

weekly_avg

## # A tibble: 52 x 2
##     week mean_weekly_overall
##    <dbl>               <dbl>
##  1     1              17388.
##  2     2              22056.
##  3     3              21892.
##  4     4              21470.
##  5     5              21194.
##  6     6              20226.
##  7     7              23254.
##  8     8              23575.
##  9     9              20167 
## 10    10              23403.
## # ... with 42 more rows
…
  #Filtering for recent years
  filter(year %in% c(2016,2017,2018,2019,2020,2021)) %>%
  
  #Grouping by year and week
  group_by(year,week) %>%
  
  #Calculating average bikes hired for each week
  summarize(
    mean_weekly_bikes = mean(bikes_hired)
  )

bikes_weekly_mean

## # A tibble: 291 x 3
## # Groups:   year [6]
##     year  week mean_weekly_bikes
##    <dbl> <dbl>             <dbl>
##  1  2016     1            18867.
##  2  2016     2            20255.
##  3  2016     3            20937.
##  4  2016     4            20550.
##  5  2016     5            21230 
##  6  2016     6            19896.
##  7  2016     7            19655.
##  8  2016     8            21205.
##  9  2016     9            19865.
## 10  2016    10            21974.
## # ... with 281 more rows
…
  #Calculating excess weekly rentals
  mutate(excess_weekly_rentals_percent = (excess_weekly_rentals / mean_weekly_overall) * 100,
         
  #Defining up and down variables to determine fill
  up = ifelse(excess_weekly_rentals > 0, as.numeric(excess_weekly_rentals / mean_weekly_overall) * 100, 0),
  
  down = ifelse(excess_weekly_rentals < 0, as.numeric(excess_weekly_rentals / mean_weekly_overall) * 100, 0)) %>%
  
  #Sorting by year and week
  arrange(year,week)

bikes_week_avg_new

## # A tibble: 291 x 8
## # Groups:   year [6]
##     year  week mean_weekly_bikes mean_weekly_overall excess_weekly_rentals
##    <dbl> <dbl>             <dbl>               <dbl>                 <dbl>
##  1  2016     1            18867.              17388.                1479. 
##  2  2016     2            20255.              22056.               -1802. 
##  3  2016     3            20937.              21892.                -955. 
##  4  2016     4            20550.              21470.                -920. 
##  5  2016     5            21230               21194.                  35.8
##  6  2016     6            19896.              20226.                -330. 
##  7  2016     7            19655.              23254.               -3599  
##  8  2016     8            21205.              23575.               -2370. 
##  9  2016     9            19865.              20167                 -302. 
## 10  2016    10            21974.              23403.               -1429. 
## # ... with 281 more rows, and 3 more variables:
## #   excess_weekly_rentals_percent <dbl>, up <dbl>, down <dbl>
…
